<?xml version="1.0" encoding="UTF-8" standalone="no"?>
<!DOCTYPE svg PUBLIC "-//W3C//DTD SVG 1.1//EN"
 "http://www.w3.org/Graphics/SVG/1.1/DTD/svg11.dtd">
<!-- Generated by graphviz version 8.1.0 (20230707.0739)
 -->
<!-- Pages: 1 -->
<svg width="399pt" height="488pt"
 viewBox="0.00 0.00 398.94 487.56" xmlns="http://www.w3.org/2000/svg" xmlns:xlink="http://www.w3.org/1999/xlink">
<g id="graph0" class="graph" transform="scale(1 1) rotate(0) translate(4 483.56)">
<polygon fill="white" stroke="none" points="-4,4 -4,-483.56 394.94,-483.56 394.94,4 -4,4"/>
<!-- dot -->
<g id="node1" class="node">
<title>dot</title>
<ellipse fill="none" stroke="black" cx="207.12" cy="-460.12" rx="27" ry="19.45"/>
<text text-anchor="middle" x="207.12" y="-456.57" font-family="sans" font-size="14.00">dot</text>
</g>
<!-- dot_tpsA -->
<g id="node2" class="node">
<title>dot_tpsA</title>
<polygon fill="none" stroke="black" points="88.62,-404.67 21.62,-404.67 21.62,-368.67 88.62,-368.67 88.62,-404.67"/>
<text text-anchor="middle" x="55.12" y="-383.12" font-family="sans" font-size="14.00">dot &#45;Tps</text>
</g>
<!-- dot&#45;&gt;dot_tpsA -->
<g id="edge1" class="edge">
<title>dot&#45;&gt;dot_tpsA</title>
<path fill="none" stroke="black" d="M185.02,-448.73C162.48,-438.14 126.92,-421.42 98.7,-408.15"/>
<polygon fill="black" stroke="black" points="100.59,-404.71 90.05,-403.62 97.61,-411.04 100.59,-404.71"/>
</g>
<!-- dot_tps2A -->
<g id="node3" class="node">
<title>dot_tps2A</title>
<polygon fill="none" stroke="black" points="200.75,-404.67 125.5,-404.67 125.5,-368.67 200.75,-368.67 200.75,-404.67"/>
<text text-anchor="middle" x="163.12" y="-383.12" font-family="sans" font-size="14.00">dot &#45;Tps2</text>
</g>
<!-- dot&#45;&gt;dot_tps2A -->
<g id="edge2" class="edge">
<title>dot&#45;&gt;dot_tps2A</title>
<path fill="none" stroke="black" d="M196.47,-441.82C191.38,-433.55 185.16,-423.45 179.48,-414.24"/>
<polygon fill="black" stroke="black" points="182.05,-412.74 173.83,-406.06 176.09,-416.41 182.05,-412.74"/>
</g>
<!-- dot_tpsB -->
<g id="node4" class="node">
<title>dot_tpsB</title>
<polygon fill="none" stroke="black" points="285.62,-404.67 218.62,-404.67 218.62,-368.67 285.62,-368.67 285.62,-404.67"/>
<text text-anchor="middle" x="252.12" y="-383.12" font-family="sans" font-size="14.00">dot &#45;Tps</text>
</g>
<!-- dot&#45;&gt;dot_tpsB -->
<g id="edge3" class="edge">
<title>dot&#45;&gt;dot_tpsB</title>
<path fill="none" stroke="black" d="M218.02,-441.82C223.23,-433.55 229.59,-423.45 235.39,-414.24"/>
<polygon fill="black" stroke="black" points="238.81,-416.38 241.18,-406.06 232.89,-412.65 238.81,-416.38"/>
</g>
<!-- dot_tps2B -->
<g id="node5" class="node">
<title>dot_tps2B</title>
<polygon fill="none" stroke="black" points="379.75,-404.67 304.5,-404.67 304.5,-368.67 379.75,-368.67 379.75,-404.67"/>
<text text-anchor="middle" x="342.12" y="-383.12" font-family="sans" font-size="14.00">dot &#45;Tps2</text>
</g>
<!-- dot&#45;&gt;dot_tps2B -->
<g id="edge4" class="edge">
<title>dot&#45;&gt;dot_tps2B</title>
<path fill="none" stroke="black" d="M228.52,-447.8C247.6,-437.7 276.09,-422.62 299.77,-410.09"/>
<polygon fill="black" stroke="black" points="301.05,-412.84 308.25,-405.07 297.77,-406.66 301.05,-412.84"/>
</g>
<!-- psA -->
<g id="node6" class="node">
<title>psA</title>
<ellipse fill="none" stroke="black" cx="28.12" cy="-313.23" rx="27" ry="19.45"/>
<text text-anchor="middle" x="28.12" y="-309.68" font-family="sans" font-size="14.00">.ps</text>
</g>
<!-- dot_tpsA&#45;&gt;psA -->
<g id="edge5" class="edge">
<title>dot_tpsA&#45;&gt;psA</title>
<path fill="none" stroke="black" d="M48.59,-368.38C45.66,-360.63 42.13,-351.28 38.83,-342.55"/>
<polygon fill="black" stroke="black" points="41.79,-341.48 34.98,-333.36 35.24,-343.95 41.79,-341.48"/>
</g>
<!-- psB -->
<g id="node7" class="node">
<title>psB</title>
<ellipse fill="none" stroke="black" cx="172.12" cy="-313.23" rx="27" ry="19.45"/>
<text text-anchor="middle" x="172.12" y="-309.68" font-family="sans" font-size="14.00">.ps</text>
</g>
<!-- dot_tps2A&#45;&gt;psB -->
<g id="edge6" class="edge">
<title>dot_tps2A&#45;&gt;psB</title>
<path fill="none" stroke="black" d="M165.3,-368.38C166.24,-360.91 167.37,-351.97 168.44,-343.52"/>
<polygon fill="black" stroke="black" points="172,-344.22 169.78,-333.86 165.05,-343.35 172,-344.22"/>
</g>
<!-- psC -->
<g id="node8" class="node">
<title>psC</title>
<ellipse fill="none" stroke="black" cx="245.12" cy="-313.23" rx="27" ry="19.45"/>
<text text-anchor="middle" x="245.12" y="-309.68" font-family="sans" font-size="14.00">.ps</text>
</g>
<!-- dot_tpsB&#45;&gt;psC -->
<g id="edge7" class="edge">
<title>dot_tpsB&#45;&gt;psC</title>
<path fill="none" stroke="black" d="M250.43,-368.38C249.71,-361.05 248.86,-352.3 248.04,-344"/>
<polygon fill="black" stroke="black" points="251.43,-343.73 246.98,-334.12 244.47,-344.41 251.43,-343.73"/>
</g>
<!-- psD -->
<g id="node9" class="node">
<title>psD</title>
<ellipse fill="none" stroke="black" cx="344.12" cy="-313.23" rx="27" ry="19.45"/>
<text text-anchor="middle" x="344.12" y="-309.68" font-family="sans" font-size="14.00">.ps</text>
</g>
<!-- dot_tps2B&#45;&gt;psD -->
<g id="edge8" class="edge">
<title>dot_tps2B&#45;&gt;psD</title>
<path fill="none" stroke="black" d="M342.61,-368.38C342.81,-361.05 343.06,-352.3 343.29,-344"/>
<polygon fill="black" stroke="black" points="346.81,-344.21 343.6,-334.12 339.82,-344.02 346.81,-344.21"/>
</g>
<!-- dvipsA -->
<g id="node11" class="node">
<title>dvipsA</title>
<polygon fill="none" stroke="black" points="57.12,-257.78 3.12,-257.78 3.12,-221.78 57.12,-221.78 57.12,-257.78"/>
<text text-anchor="middle" x="30.12" y="-236.23" font-family="sans" font-size="14.00">dvips</text>
</g>
<!-- psA&#45;&gt;dvipsA -->
<g id="edge9" class="edge">
<title>psA&#45;&gt;dvipsA</title>
<path fill="none" stroke="black" d="M28.65,-293.46C28.86,-286.04 29.1,-277.35 29.33,-269.19"/>
<polygon fill="black" stroke="black" points="32.86,-269.3 29.64,-259.2 25.86,-269.1 32.86,-269.3"/>
</g>
<!-- dvipsB -->
<g id="node12" class="node">
<title>dvipsB</title>
<polygon fill="none" stroke="black" points="138.12,-257.78 84.12,-257.78 84.12,-221.78 138.12,-221.78 138.12,-257.78"/>
<text text-anchor="middle" x="111.12" y="-236.23" font-family="sans" font-size="14.00">dvips</text>
</g>
<!-- psB&#45;&gt;dvipsB -->
<g id="edge12" class="edge">
<title>psB&#45;&gt;dvipsB</title>
<path fill="none" stroke="black" d="M158.28,-296.02C150.83,-287.29 141.47,-276.33 133.06,-266.47"/>
<polygon fill="black" stroke="black" points="135.13,-264.51 125.98,-259.18 129.81,-269.06 135.13,-264.51"/>
</g>
<!-- ps2pdfA -->
<g id="node13" class="node">
<title>ps2pdfA</title>
<polygon fill="none" stroke="black" points="246.25,-257.78 186,-257.78 186,-221.78 246.25,-221.78 246.25,-257.78"/>
<text text-anchor="middle" x="216.12" y="-236.23" font-family="sans" font-size="14.00">ps2pdf</text>
</g>
<!-- psC&#45;&gt;ps2pdfA -->
<g id="edge13" class="edge">
<title>psC&#45;&gt;ps2pdfA</title>
<path fill="none" stroke="black" d="M237.81,-294.2C234.61,-286.32 230.79,-276.91 227.25,-268.2"/>
<polygon fill="black" stroke="black" points="230.14,-267.01 223.14,-259.07 223.66,-269.65 230.14,-267.01"/>
</g>
<!-- ps2pdfB -->
<g id="node14" class="node">
<title>ps2pdfB</title>
<polygon fill="none" stroke="black" points="378.25,-257.78 318,-257.78 318,-221.78 378.25,-221.78 378.25,-257.78"/>
<text text-anchor="middle" x="348.12" y="-236.23" font-family="sans" font-size="14.00">ps2pdf</text>
</g>
<!-- psD&#45;&gt;ps2pdfB -->
<g id="edge14" class="edge">
<title>psD&#45;&gt;ps2pdfB</title>
<path fill="none" stroke="black" d="M345.18,-293.46C345.6,-285.95 346.09,-277.15 346.55,-268.91"/>
<polygon fill="black" stroke="black" points="350.09,-269.38 347.15,-259.2 343.1,-268.99 350.09,-269.38"/>
</g>
<!-- dviA -->
<g id="node10" class="node">
<title>dviA</title>
<ellipse fill="none" stroke="black" cx="100.12" cy="-313.23" rx="27.22" ry="19.45"/>
<text text-anchor="middle" x="100.12" y="-309.68" font-family="sans" font-size="14.00">.dvi</text>
</g>
<!-- dviA&#45;&gt;dvipsA -->
<g id="edge10" class="edge">
<title>dviA&#45;&gt;dvipsA</title>
<path fill="none" stroke="black" d="M84.94,-296.72C76.18,-287.79 64.95,-276.33 54.95,-266.12"/>
<polygon fill="black" stroke="black" points="57.75,-263.96 48.25,-259.26 52.75,-268.85 57.75,-263.96"/>
</g>
<!-- dviA&#45;&gt;dvipsB -->
<g id="edge11" class="edge">
<title>dviA&#45;&gt;dvipsB</title>
<path fill="none" stroke="black" d="M103.02,-293.46C104.17,-285.95 105.53,-277.15 106.79,-268.91"/>
<polygon fill="black" stroke="black" points="110.38,-269.62 108.44,-259.2 103.46,-268.55 110.38,-269.62"/>
</g>
<!-- psE -->
<g id="node15" class="node">
<title>psE</title>
<ellipse fill="none" stroke="black" cx="30.12" cy="-166.34" rx="27" ry="19.45"/>
<text text-anchor="middle" x="30.12" y="-162.79" font-family="sans" font-size="14.00">.ps</text>
</g>
<!-- dvipsA&#45;&gt;psE -->
<g id="edge15" class="edge">
<title>dvipsA&#45;&gt;psE</title>
<path fill="none" stroke="black" d="M30.12,-221.49C30.12,-214.16 30.12,-205.41 30.12,-197.11"/>
<polygon fill="black" stroke="black" points="33.63,-197.23 30.12,-187.23 26.63,-197.23 33.63,-197.23"/>
</g>
<!-- psF -->
<g id="node16" class="node">
<title>psF</title>
<ellipse fill="none" stroke="black" cx="111.12" cy="-166.34" rx="27" ry="19.45"/>
<text text-anchor="middle" x="111.12" y="-162.79" font-family="sans" font-size="14.00">.ps</text>
</g>
<!-- dvipsB&#45;&gt;psF -->
<g id="edge16" class="edge">
<title>dvipsB&#45;&gt;psF</title>
<path fill="none" stroke="black" d="M111.12,-221.49C111.12,-214.16 111.12,-205.41 111.12,-197.11"/>
<polygon fill="black" stroke="black" points="114.63,-197.23 111.12,-187.23 107.63,-197.23 114.63,-197.23"/>
</g>
<!-- pdfA -->
<g id="node17" class="node">
<title>pdfA</title>
<ellipse fill="none" stroke="black" cx="212.12" cy="-166.34" rx="28.81" ry="19.45"/>
<text text-anchor="middle" x="212.12" y="-162.79" font-family="sans" font-size="14.00">.pdf</text>
</g>
<!-- ps2pdfA&#45;&gt;pdfA -->
<g id="edge17" class="edge">
<title>ps2pdfA&#45;&gt;pdfA</title>
<path fill="none" stroke="black" d="M215.16,-221.49C214.75,-214.16 214.26,-205.41 213.79,-197.11"/>
<polygon fill="black" stroke="black" points="217.24,-197.02 213.18,-187.23 210.25,-197.41 217.24,-197.02"/>
</g>
<!-- pdfB -->
<g id="node18" class="node">
<title>pdfB</title>
<ellipse fill="none" stroke="black" cx="362.12" cy="-166.34" rx="28.81" ry="19.45"/>
<text text-anchor="middle" x="362.12" y="-162.79" font-family="sans" font-size="14.00">.pdf</text>
</g>
<!-- ps2pdfB&#45;&gt;pdfB -->
<g id="edge18" class="edge">
<title>ps2pdfB&#45;&gt;pdfB</title>
<path fill="none" stroke="black" d="M351.51,-221.49C352.98,-214.02 354.73,-205.08 356.39,-196.63"/>
<polygon fill="black" stroke="black" points="359.98,-197.46 358.47,-186.97 353.12,-196.11 359.98,-197.46"/>
</g>
<!-- ps2pdfC -->
<g id="node20" class="node">
<title>ps2pdfC</title>
<polygon fill="none" stroke="black" points="60.25,-110.89 0,-110.89 0,-74.89 60.25,-74.89 60.25,-110.89"/>
<text text-anchor="middle" x="30.12" y="-89.34" font-family="sans" font-size="14.00">ps2pdf</text>
</g>
<!-- psE&#45;&gt;ps2pdfC -->
<g id="edge19" class="edge">
<title>psE&#45;&gt;ps2pdfC</title>
<path fill="none" stroke="black" d="M30.12,-146.56C30.12,-139.15 30.12,-130.46 30.12,-122.3"/>
<polygon fill="black" stroke="black" points="33.63,-122.31 30.12,-112.31 26.63,-122.31 33.63,-122.31"/>
</g>
<!-- ps2pdfD -->
<g id="node21" class="node">
<title>ps2pdfD</title>
<polygon fill="none" stroke="black" points="141.25,-110.89 81,-110.89 81,-74.89 141.25,-74.89 141.25,-110.89"/>
<text text-anchor="middle" x="111.12" y="-89.34" font-family="sans" font-size="14.00">ps2pdf</text>
</g>
<!-- psF&#45;&gt;ps2pdfD -->
<g id="edge20" class="edge">
<title>psF&#45;&gt;ps2pdfD</title>
<path fill="none" stroke="black" d="M111.12,-146.56C111.12,-139.15 111.12,-130.46 111.12,-122.3"/>
<polygon fill="black" stroke="black" points="114.63,-122.31 111.12,-112.31 107.63,-122.31 114.63,-122.31"/>
</g>
<!-- pdflatexA -->
<g id="node22" class="node">
<title>pdflatexA</title>
<polygon fill="none" stroke="black" points="256.38,-110.89 187.88,-110.89 187.88,-74.89 256.38,-74.89 256.38,-110.89"/>
<text text-anchor="middle" x="222.12" y="-89.34" font-family="sans" font-size="14.00">pdflatex</text>
</g>
<!-- pdfA&#45;&gt;pdflatexA -->
<g id="edge21" class="edge">
<title>pdfA&#45;&gt;pdflatexA</title>
<path fill="none" stroke="black" d="M214.75,-146.56C215.8,-139.06 217.03,-130.26 218.19,-122.02"/>
<polygon fill="black" stroke="black" points="221.77,-122.7 219.69,-112.31 214.83,-121.73 221.77,-122.7"/>
</g>
<!-- pdflatexB -->
<g id="node23" class="node">
<title>pdflatexB</title>
<polygon fill="none" stroke="black" points="358.38,-110.89 289.88,-110.89 289.88,-74.89 358.38,-74.89 358.38,-110.89"/>
<text text-anchor="middle" x="324.12" y="-89.34" font-family="sans" font-size="14.00">pdflatex</text>
</g>
<!-- pdfB&#45;&gt;pdflatexB -->
<g id="edge24" class="edge">
<title>pdfB&#45;&gt;pdflatexB</title>
<path fill="none" stroke="black" d="M352.73,-147.68C348.45,-139.63 343.29,-129.92 338.54,-120.99"/>
<polygon fill="black" stroke="black" points="341.2,-119.53 333.41,-112.35 335.02,-122.82 341.2,-119.53"/>
</g>
<!-- tex -->
<g id="node19" class="node">
<title>tex</title>
<ellipse fill="none" stroke="black" cx="287.12" cy="-166.34" rx="28.28" ry="19.45"/>
<text text-anchor="middle" x="287.12" y="-162.79" font-family="sans" font-size="14.00">.tex</text>
</g>
<!-- tex&#45;&gt;pdflatexA -->
<g id="edge22" class="edge">
<title>tex&#45;&gt;pdflatexA</title>
<path fill="none" stroke="black" d="M272.7,-149.48C264.63,-140.62 254.39,-129.36 245.24,-119.3"/>
<polygon fill="black" stroke="black" points="248.19,-117.24 238.88,-112.2 243.02,-121.96 248.19,-117.24"/>
</g>
<!-- tex&#45;&gt;pdflatexB -->
<g id="edge23" class="edge">
<title>tex&#45;&gt;pdflatexB</title>
<path fill="none" stroke="black" d="M296.27,-147.68C300.44,-139.63 305.46,-129.92 310.09,-120.99"/>
<polygon fill="black" stroke="black" points="313.59,-122.84 315.08,-112.35 307.38,-119.62 313.59,-122.84"/>
</g>
<!-- pdfC -->
<g id="node24" class="node">
<title>pdfC</title>
<ellipse fill="none" stroke="black" cx="30.12" cy="-19.45" rx="28.81" ry="19.45"/>
<text text-anchor="middle" x="30.12" y="-15.9" font-family="sans" font-size="14.00">.pdf</text>
</g>
<!-- ps2pdfC&#45;&gt;pdfC -->
<g id="edge25" class="edge">
<title>ps2pdfC&#45;&gt;pdfC</title>
<path fill="none" stroke="black" d="M30.12,-74.6C30.12,-67.27 30.12,-58.52 30.12,-50.22"/>
<polygon fill="black" stroke="black" points="33.63,-50.34 30.12,-40.34 26.63,-50.34 33.63,-50.34"/>
</g>
<!-- pdfD -->
<g id="node25" class="node">
<title>pdfD</title>
<ellipse fill="lightgrey" stroke="black" cx="111.12" cy="-19.45" rx="28.81" ry="19.45"/>
<text text-anchor="middle" x="111.12" y="-15.9" font-family="sans" font-size="14.00">.pdf</text>
</g>
<!-- ps2pdfD&#45;&gt;pdfD -->
<g id="edge26" class="edge">
<title>ps2pdfD&#45;&gt;pdfD</title>
<path fill="none" stroke="black" d="M111.12,-74.6C111.12,-67.27 111.12,-58.52 111.12,-50.22"/>
<polygon fill="black" stroke="black" points="114.63,-50.34 111.12,-40.34 107.63,-50.34 114.63,-50.34"/>
</g>
<!-- pdfE -->
<g id="node26" class="node">
<title>pdfE</title>
<ellipse fill="lightgrey" stroke="black" cx="222.12" cy="-19.45" rx="28.81" ry="19.45"/>
<text text-anchor="middle" x="222.12" y="-15.9" font-family="sans" font-size="14.00">.pdf</text>
</g>
<!-- pdflatexA&#45;&gt;pdfE -->
<g id="edge27" class="edge">
<title>pdflatexA&#45;&gt;pdfE</title>
<path fill="none" stroke="black" d="M222.12,-74.6C222.12,-67.27 222.12,-58.52 222.12,-50.22"/>
<polygon fill="black" stroke="black" points="225.63,-50.34 222.12,-40.34 218.63,-50.34 225.63,-50.34"/>
</g>
<!-- pdfF -->
<g id="node27" class="node">
<title>pdfF</title>
<ellipse fill="none" stroke="black" cx="324.12" cy="-19.45" rx="28.81" ry="19.45"/>
<text text-anchor="middle" x="324.12" y="-15.9" font-family="sans" font-size="14.00">.pdf</text>
</g>
<!-- pdflatexB&#45;&gt;pdfF -->
<g id="edge28" class="edge">
<title>pdflatexB&#45;&gt;pdfF</title>
<path fill="none" stroke="black" d="M324.12,-74.6C324.12,-67.27 324.12,-58.52 324.12,-50.22"/>
<polygon fill="black" stroke="black" points="327.63,-50.34 324.12,-40.34 320.63,-50.34 327.63,-50.34"/>
</g>
</g>
</svg>
